1910 1927
1972 1999
1992 1992
1922 1967
1910 1943
1920 1945
1922 1993
1961 1973
2000 2000
1913 1967
1933 1981
1953 1996
1987 1989
1983 2000
1948 1980
1915 1953
1907 1998
1952 1975
1926 1936
1914 1940
1960 1972
1918 1952
1905 1949
1903 1935
1950 1955